<svg viewBox="-6 -6 32 32">
  <g class="icons-default-fill">
    <path d="M6.49435 8.0754C6.53946 7.77966 6.83274 7.5 7.24799 7.5C7.66324 7.5 7.95652 7.77966 8.00163 8.0754C8.04327 8.34838 8.29832 8.53592 8.57131 8.49428C8.84429 8.45264 9.03183 8.19759 8.99019 7.9246C8.86288 7.08996 8.10443 6.5 7.24799 6.5C6.39155 6.5 5.6331 7.08996 5.50579 7.9246C5.46415 8.19759 5.65169 8.45264 5.92467 8.49428C6.19766 8.53592 6.45271 8.34838 6.49435 8.0754Z"/>
    <path d="M12.748 7.5C12.3327 7.5 12.0395 7.77966 11.9944 8.0754C11.9527 8.34838 11.6977 8.53592 11.4247 8.49428C11.1517 8.45264 10.9641 8.19759 11.0058 7.9246C11.1331 7.08996 11.8916 6.5 12.748 6.5C13.6044 6.5 14.3629 7.08996 14.4902 7.9246C14.5318 8.19759 14.3443 8.45264 14.0713 8.49428C13.7983 8.53592 13.5433 8.34838 13.5016 8.0754C13.4565 7.77966 13.1632 7.5 12.748 7.5Z"/>
    <path d="M5.49536 10C5.3543 10 5.2198 10.0596 5.12502 10.1641C5.03025 10.2686 4.98402 10.4082 4.99773 10.5486C5.23637 12.9918 7.15425 15 9.99536 15C12.8364 15 14.7543 12.9918 14.993 10.5486C15.0067 10.4082 14.9605 10.2686 14.8657 10.1641C14.7709 10.0596 14.6364 10 14.4954 10H5.49536ZM9.99536 14C7.91367 14 6.47924 12.6972 6.08316 11H13.9076C13.5114 12.6972 12.077 14 9.99536 14Z"/>
    <path d="M10 2C5.58172 2 2 5.58172 2 10C2 14.4183 5.58172 18 10 18C14.4183 18 18 14.4183 18 10C18 5.58172 14.4183 2 10 2ZM3 10C3 6.13401 6.13401 3 10 3C13.866 3 17 6.13401 17 10C17 13.866 13.866 17 10 17C6.13401 17 3 13.866 3 10Z"/>
  </g>
</svg>
