<svg viewBox="-6 -6 32 32"
     class="app-svg icons-promoted"
     aria-labelledby="icons-promoted">
  <title>icn_promoted</title>
  <path class="icons-default-fill"
        d="M16 8C16 9.777 15.2275 11.3736 14 12.4722V17.5002C14 17.6784 13.9051 17.8432 13.751 17.9327C13.5968 18.0221 13.4067 18.0227 13.2519 17.9343L10 16.0761L6.74807 17.9343C6.59332 18.0227 6.40319 18.0221 6.24904 17.9327C6.09488 17.8432 6 17.6784 6 17.5002V12.4722C4.7725 11.3736 4 9.777 4 8C4 4.68629 6.68629 2 10 2C13.3137 2 16 4.68629 16 8ZM10 14C8.90714 14 7.88252 13.7078 7 13.1973V16.6386L9.75193 15.0661C9.90565 14.9782 10.0944 14.9782 10.2481 15.0661L13 16.6386V13.1973C12.1175 13.7078 11.0929 14 10 14ZM10 13C12.7614 13 15 10.7614 15 8C15 5.23858 12.7614 3 10 3C7.23858 3 5 5.23858 5 8C5 10.7614 7.23858 13 10 13Z" />
</svg>